[
  {
    "line": 2,
    "elements": [
      {
        "before": [
          {
            "result": {
              "duration": 158133600,
              "status": "passed"
            },
            "match": {
              "location": "stepDefinitions.setUp(Scenario)"
            }
          }
        ],
        "line": 13,
        "name": "Calculate parkinf fee for \"TC001\"",
        "description": "",
        "id": "calculate-different-parking-fees;calculate-parkinf-fee-for-\"\u003ctestcase\u003e\";;2",
        "after": [
          {
            "result": {
              "duration": 890488600,
              "status": "passed"
            },
            "match": {
              "location": "stepDefinitions.tearDown(Scenario)"
            }
          }
        ],
        "type": "scenario",
        "keyword": "Scenario Outline",
        "steps": [
          {
            "output": [
              "\u003ca href\u003d\"E:\\K2Range\\benu\\theparkingcalculatorproject\\Reports\\GeneratdScreenShots\\Sandbox\\2021-05-12\\Sandbox_2021-05-12_1620764859591.jpg\" target\u003d\"_blank\"\u003eScreenShot\u003c/a\u003e "
            ],
            "result": {
              "duration": 4757549700,
              "status": "passed"
            },
            "line": 4,
            "name": "The user Opened the AUT.",
            "match": {
              "location": "stepDefinitions.the_user_Opened_to_AUT()"
            },
            "keyword": "Given "
          },
          {
            "result": {
              "duration": 5002929600,
              "status": "passed"
            },
            "line": 5,
            "name": "the user waits for the page to load.",
            "match": {
              "location": "elementOperation.the_user_waits_for_the_page_to_load()"
            },
            "keyword": "Then "
          },
          {
            "result": {
              "duration": 1050653500,
              "status": "passed"
            },
            "line": 6,
            "name": "the user puts the data for \"TC001\".",
            "match": {
              "arguments": [
                {
                  "val": "TC001",
                  "offset": 28
                }
              ],
              "location": "SFSteps.the_user_puts_the_data_for(String)"
            },
            "matchedColumns": [
              0
            ],
            "keyword": "And "
          },
          {
            "result": {
              "duration": 5011682800,
              "status": "passed"
            },
            "line": 7,
            "name": "the user waits for the page to load.",
            "match": {
              "location": "elementOperation.the_user_waits_for_the_page_to_load()"
            },
            "keyword": "Then "
          },
          {
            "result": {
              "duration": 425303400,
              "status": "passed"
            },
            "line": 8,
            "name": "submits the input data.",
            "match": {
              "location": "SFSteps.submits_the_input_data()"
            },
            "keyword": "Then "
          },
          {
            "result": {
              "duration": 5001083700,
              "status": "passed"
            },
            "line": 9,
            "name": "the user waits for the page to load.",
            "match": {
              "location": "elementOperation.the_user_waits_for_the_page_to_load()"
            },
            "keyword": "Then "
          },
          {
            "result": {
              "duration": 81025500,
              "status": "passed"
            },
            "line": 10,
            "name": "validate the outcome for \"TC001\".",
            "match": {
              "arguments": [
                {
                  "val": "TC001",
                  "offset": 26
                }
              ],
              "location": "SFSteps.validate_the_outcome_for(String)"
            },
            "matchedColumns": [
              0
            ],
            "keyword": "Then "
          }
        ],
        "tags": [
          {
            "line": 1,
            "name": "@Parking"
          }
        ]
      },
      {
        "before": [
          {
            "result": {
              "duration": 21300,
              "status": "passed"
            },
            "match": {
              "location": "stepDefinitions.setUp(Scenario)"
            }
          }
        ],
        "line": 14,
        "name": "Calculate parkinf fee for \"TC002\"",
        "description": "",
        "id": "calculate-different-parking-fees;calculate-parkinf-fee-for-\"\u003ctestcase\u003e\";;3",
        "after": [
          {
            "result": {
              "duration": 1182205700,
              "status": "passed"
            },
            "match": {
              "location": "stepDefinitions.tearDown(Scenario)"
            }
          }
        ],
        "type": "scenario",
        "keyword": "Scenario Outline",
        "steps": [
          {
            "output": [
              "\u003ca href\u003d\"E:\\K2Range\\benu\\theparkingcalculatorproject\\Reports\\GeneratdScreenShots\\Sandbox\\2021-05-12\\Sandbox_2021-05-12_1620764881024.jpg\" target\u003d\"_blank\"\u003eScreenShot\u003c/a\u003e "
            ],
            "result": {
              "duration": 3957486000,
              "status": "passed"
            },
            "line": 4,
            "name": "The user Opened the AUT.",
            "match": {
              "location": "stepDefinitions.the_user_Opened_to_AUT()"
            },
            "keyword": "Given "
          },
          {
            "result": {
              "duration": 5004853000,
              "status": "passed"
            },
            "line": 5,
            "name": "the user waits for the page to load.",
            "match": {
              "location": "elementOperation.the_user_waits_for_the_page_to_load()"
            },
            "keyword": "Then "
          },
          {
            "result": {
              "duration": 956446600,
              "status": "passed"
            },
            "line": 6,
            "name": "the user puts the data for \"TC002\".",
            "match": {
              "arguments": [
                {
                  "val": "TC002",
                  "offset": 28
                }
              ],
              "location": "SFSteps.the_user_puts_the_data_for(String)"
            },
            "matchedColumns": [
              0
            ],
            "keyword": "And "
          },
          {
            "result": {
              "duration": 5009929900,
              "status": "passed"
            },
            "line": 7,
            "name": "the user waits for the page to load.",
            "match": {
              "location": "elementOperation.the_user_waits_for_the_page_to_load()"
            },
            "keyword": "Then "
          },
          {
            "result": {
              "duration": 409023300,
              "status": "passed"
            },
            "line": 8,
            "name": "submits the input data.",
            "match": {
              "location": "SFSteps.submits_the_input_data()"
            },
            "keyword": "Then "
          },
          {
            "result": {
              "duration": 5008439200,
              "status": "passed"
            },
            "line": 9,
            "name": "the user waits for the page to load.",
            "match": {
              "location": "elementOperation.the_user_waits_for_the_page_to_load()"
            },
            "keyword": "Then "
          },
          {
            "result": {
              "duration": 75272300,
              "status": "passed"
            },
            "line": 10,
            "name": "validate the outcome for \"TC002\".",
            "match": {
              "arguments": [
                {
                  "val": "TC002",
                  "offset": 26
                }
              ],
              "location": "SFSteps.validate_the_outcome_for(String)"
            },
            "matchedColumns": [
              0
            ],
            "keyword": "Then "
          }
        ],
        "tags": [
          {
            "line": 1,
            "name": "@Parking"
          }
        ]
      }
    ],
    "name": "Calculate different parking fees",
    "description": "",
    "id": "calculate-different-parking-fees",
    "keyword": "Feature",
    "uri": "ParkingCalc.feature",
    "tags": [
      {
        "line": 1,
        "name": "@Parking"
      }
    ]
  }
]